Data visualization basics
…
# Visualizing Star Wars

---

## Dataset terminology

__Question__: What does each row represent? What does each column represent?

```r
starwars[, 1:5]
```

```
## # A tibble: 87 x 5
##    name               height  mass hair_color    skin_color 
##    <chr>               <int> <dbl> <chr>         <chr>      
##  1 Luke Skywalker        172    77 blond         fair       
##  2 C-3PO                 167    75 <NA>          gold       
##  3 R2-D2                  96    32 <NA>          white, blue
##  4 Darth Vader           202   136 none          white      
##  5 Leia Organa           150    49 brown         light      
##  6 Owen Lars             178   120 brown, grey   light      
##  7 Beru Whitesun lars    165    75 brown         light      
##  8 R5-D4                  97    32 <NA>          white, red 
##  9 Biggs Darklighter     183    84 black         light      
## 10 Obi-Wan Kenobi        182    77 auburn, white fair       
## # ... with 77 more rows
```
…
